{
  "category": {
    "slug": "enduit-et-mastic",
    "parentLabel": "Préparation des surfaces",
    "parentHref": "/preparation-materiaux",
    "name": "Enduits & Mastics",
    "tagline": "Préparation Haute Performance",
    "description": "Gamme complète d'enduits de lissage, mastics d'étanchéité et produits de préparation pour artisans professionnels du bâtiment.",
    "stats": { "products": 142, "brands": 12, "delivery": "J+1" }
  },
  "brands": [
    { "name": "Toupret", "count": 34 },
    { "name": "Semin", "count": 28 },
    { "name": "PDF Pro", "count": 22 },
    { "name": "Knauf", "count": 19 },
    { "name": "Sika", "count": 15 },
    { "name": "Weber", "count": 12 },
    { "name": "Parexlanko", "count": 8 }
  ],
  "surfaceTypes": [
    { "name": "Béton", "count": 52 },
    { "name": "Plâtre", "count": 41 },
    { "name": "Bois", "count": 23 },
    { "name": "Métal", "count": 18 },
    { "name": "Plaque de Plâtre", "count": 31 },
    { "name": "Brique", "count": 14 }
  ],
  "priceRange": { "min": 0, "max": 500, "currentMin": 0, "currentMax": 250 },
  "activeFilters": ["Béton", "Toupret"],
  "totalCount": 142,
  "page": 1,
  "totalPages": 16,
  "sortOptions": ["Pertinence", "Prix croissant", "Prix décroissant", "Nouveautés", "Meilleures ventes"],
  "products": [
    {
      "id": "PDF-EL-2500",
      "sku": "PDF-EL-2500",
      "brand": "Toupret",
      "name": "Enduit de Lissage Professionnel 25kg",
      "image": "https://images.unsplash.com/photo-1607400201889-565b1ee75f8e?w=600&q=80&auto=format&fit=crop",
      "tags": ["25 KG", "BÉTON", "INTÉRIEUR"],
      "price": 28.90,
      "compareAtPrice": 35.00,
      "unitPrice": "1,16 €/kg",
      "badge": { "label": "PRO", "tone": "dark" },
      "discount": "-17%",
      "stock": "in_stock"
    },
    {
      "id": "SEM-ME-5",
      "sku": "SEM-ME-5",
      "brand": "Semin",
      "name": "Mastic d'Étanchéité Extérieur 5kg",
      "image": "https://images.unsplash.com/photo-1632478081312-3d6cdbb12cc7?w=600&q=80&auto=format&fit=crop",
      "tags": ["5 KG", "EXTÉRIEUR", "MÉTAL"],
      "price": 14.50,
      "compareAtPrice": null,
      "unitPrice": "2,90 €/kg",
      "badge": { "label": "NOUVEAU", "tone": "stock" },
      "ribbon": "STOCK",
      "stock": "in_stock"
    },
    {
      "id": "PDF-EF-15",
      "sku": "PDF-EF-15",
      "brand": "PDF Pro",
      "name": "Enduit de Finition Plâtre 15kg",
      "image": "https://images.unsplash.com/photo-1620641622099-a14eb9d35f9d?w=600&q=80&auto=format&fit=crop",
      "tags": ["15 KG", "PLÂTRE", "INTÉRIEUR"],
      "price": 22.90,
      "compareAtPrice": 27.00,
      "unitPrice": "1,53 €/kg",
      "badge": { "label": "PRO", "tone": "dark" },
      "stock": "in_stock"
    },
    {
      "id": "KNF-PB-5",
      "sku": "KNF-PB-5",
      "brand": "Knauf",
      "name": "Pâte à Bois Haute Résistance 5kg",
      "image": "https://images.unsplash.com/photo-1591588582259-30ce8a8a1cf3?w=600&q=80&auto=format&fit=crop",
      "tags": ["5 KG", "BOIS"],
      "price": 11.20,
      "compareAtPrice": null,
      "unitPrice": "2,24 €/kg",
      "badge": { "label": "NOUVEAU", "tone": "stock" },
      "cornerBadge": "A+",
      "stock": "low_stock"
    },
    {
      "id": "WEB-EC-25",
      "sku": "WEB-EC-25",
      "brand": "Weber",
      "name": "Enduit Ciment Gris Extérieur 25kg",
      "image": "https://images.unsplash.com/photo-1604782206219-3b9576575203?w=600&q=80&auto=format&fit=crop",
      "tags": ["25 KG", "BÉTON", "EXTÉRIEUR"],
      "price": 19.50,
      "compareAtPrice": 22.20,
      "unitPrice": "0,78 €/kg",
      "badge": { "label": "PRO", "tone": "dark" },
      "discount": "-12%",
      "stock": "in_stock"
    },
    {
      "id": "SKA-MA-1",
      "sku": "SKA-MA-1",
      "brand": "Sika",
      "name": "Mastic Acrylique Multi-Supports 1kg",
      "image": "https://images.unsplash.com/photo-1572981779307-38b8cabb2407?w=600&q=80&auto=format&fit=crop",
      "tags": ["1 KG", "MÉTAL", "BOIS"],
      "price": 6.90,
      "compareAtPrice": null,
      "unitPrice": "6,90 €/kg",
      "ribbon": "STOCK",
      "stock": "in_stock"
    },
    {
      "id": "TRP-RR-15",
      "sku": "TRP-RR-15",
      "brand": "Toupret",
      "name": "Enduit Rebouchage Rapide 15kg",
      "image": "https://images.unsplash.com/photo-1620626011761-996317b8d101?w=600&q=80&auto=format&fit=crop",
      "tags": ["15 KG", "PLÂTRE", "BÉTON"],
      "price": 31.00,
      "compareAtPrice": null,
      "unitPrice": "2,07 €/kg",
      "badge": { "label": "PRO", "tone": "dark" },
      "stock": "in_stock"
    },
    {
      "id": "SEM-EP-25",
      "sku": "SEM-EP-25",
      "brand": "Semin",
      "name": "Enduit Poudre Maçonnerie 25kg",
      "image": "https://images.unsplash.com/photo-1597844760930-e7115bc1a4ec?w=600&q=80&auto=format&fit=crop",
      "tags": ["25 KG", "BRIQUE"],
      "price": 16.80,
      "compareAtPrice": null,
      "unitPrice": "0,67 €/kg",
      "ribbon": "RUPTURE",
      "stock": "out_of_stock"
    },
    {
      "id": "PDF-MF-5",
      "sku": "PDF-MF-5",
      "brand": "PDF Pro",
      "name": "Mastic Façade Élastique Pro 5kg",
      "image": "https://images.unsplash.com/photo-1581092580497-e0d23cbdf1dc?w=600&q=80&auto=format&fit=crop",
      "tags": ["5 KG", "BÉTON", "EXTÉRIEUR"],
      "price": 17.90,
      "compareAtPrice": null,
      "unitPrice": "3,58 €/kg",
      "badge": { "label": "PRO", "tone": "dark" },
      "badge2": { "label": "NOUVEAU", "tone": "stock" },
      "stock": "in_stock"
    }
  ]
}
