{
  "category": {
    "slug": "anti-nuisible",
    "parentLabel": "Quincaillerie",
    "parentHref": "/preparation-materiaux",
    "name": "Anti Nuisible",
    "tagline": "Protection & Traitement Pro",
    "description": "Insecticides, raticides et traitements anti-nuisibles professionnels pour protéger vos chantiers et bâtiments.",
    "stats": { "products": 31, "brands": 6, "delivery": "J+1" }
  },
  "brands": [
    { "name": "Xclou", "count": 9 },
    { "name": "Solabiol", "count": 7 },
    { "name": "Starwax", "count": 6 },
    { "name": "Raid", "count": 4 },
    { "name": "Julien", "count": 3 },
    { "name": "Decapfix", "count": 2 }
  ],
  "surfaceTypes": [
    { "name": "Bois", "count": 12 },
    { "name": "Métal", "count": 3 },
    { "name": "Béton", "count": 8 },
    { "name": "Extérieur", "count": 18 },
    { "name": "Intérieur", "count": 13 }
  ],
  "priceRange": { "min": 0, "max": 90, "currentMin": 0, "currentMax": 90 },
  "activeFilters": [],
  "totalCount": 31,
  "page": 1,
  "totalPages": 4,
  "sortOptions": ["Pertinence", "Prix croissant", "Prix décroissant", "Nouveautés", "Meilleures ventes"],
  "products": [
    {
      "id": "XCL-INS-XYL",
      "sku": "XCL-INS-XYL",
      "brand": "Xclou",
      "name": "Insecticide Xylophènes Bois 1L",
      "image": "https://images.unsplash.com/photo-1632478081312-3d6cdbb12cc7?w=600&q=80&auto=format&fit=crop",
      "tags": ["1 L", "BOIS", "INTÉRIEUR"],
      "price": 17.90,
      "compareAtPrice": 20.90,
      "unitPrice": "17,90 €/L",
      "badge": { "label": "PRO", "tone": "dark" },
      "discount": "-14%",
      "stock": "in_stock"
    },
    {
      "id": "SOL-ANT-RON",
      "sku": "SOL-ANT-RON",
      "brand": "Solabiol",
      "name": "Anti-Rongeurs Granulés 500g",
      "image": "https://images.unsplash.com/photo-1604782206219-3b9576575203?w=600&q=80&auto=format&fit=crop",
      "tags": ["500 G", "EXTÉRIEUR"],
      "price": 13.20,
      "compareAtPrice": null,
      "unitPrice": "26,40 €/KG",
      "badge": { "label": "NOUVEAU", "tone": "stock" },
      "ribbon": "STOCK",
      "stock": "in_stock"
    },
    {
      "id": "STX-TRA-TER",
      "sku": "STX-TRA-TER",
      "brand": "Starwax",
      "name": "Traitement Termites Curatif 5L",
      "image": "https://images.unsplash.com/photo-1591588582259-30ce8a8a1cf3?w=600&q=80&auto=format&fit=crop",
      "tags": ["5 L", "BOIS", "BÉTON"],
      "price": 49.90,
      "compareAtPrice": 56.00,
      "unitPrice": "9,98 €/L",
      "badge": { "label": "PRO", "tone": "dark" },
      "stock": "in_stock"
    },
    {
      "id": "RAI-SPR-GUE",
      "sku": "RAI-SPR-GUE",
      "brand": "Raid",
      "name": "Spray Anti-Guêpes & Frelons 750ml",
      "image": "https://images.unsplash.com/photo-1572981779307-38b8cabb2407?w=600&q=80&auto=format&fit=crop",
      "tags": ["750 ML", "EXTÉRIEUR"],
      "price": 9.50,
      "compareAtPrice": null,
      "unitPrice": "12,67 €/L",
      "badge": { "label": "NOUVEAU", "tone": "stock" },
      "cornerBadge": "PRO",
      "stock": "low_stock"
    },
    {
      "id": "JUL-REP-NUI",
      "sku": "JUL-REP-NUI",
      "brand": "Julien",
      "name": "Répulsif Nuisibles Concentré 1L",
      "image": "https://images.unsplash.com/photo-1620626011761-996317b8d101?w=600&q=80&auto=format&fit=crop",
      "tags": ["1 L", "EXTÉRIEUR", "INTÉRIEUR"],
      "price": 14.40,
      "compareAtPrice": 16.00,
      "unitPrice": "14,40 €/L",
      "badge": { "label": "PRO", "tone": "dark" },
      "discount": "-10%",
      "stock": "in_stock"
    },
    {
      "id": "XCL-PIE-ULT",
      "sku": "XCL-PIE-ULT",
      "brand": "Xclou",
      "name": "Piège Ultrason Rongeurs Électrique",
      "image": "https://images.unsplash.com/photo-1620641622099-a14eb9d35f9d?w=600&q=80&auto=format&fit=crop",
      "tags": ["INTÉRIEUR"],
      "price": 24.90,
      "compareAtPrice": null,
      "unitPrice": "24,90 €/u",
      "ribbon": "STOCK",
      "stock": "in_stock"
    },
    {
      "id": "DCF-FUM-INS",
      "sku": "DCF-FUM-INS",
      "brand": "Decapfix",
      "name": "Fumigène Insecticide Total 2 Pièces",
      "image": "https://images.unsplash.com/photo-1607400201889-565b1ee75f8e?w=600&q=80&auto=format&fit=crop",
      "tags": ["2 PCS", "INTÉRIEUR"],
      "price": 11.90,
      "compareAtPrice": null,
      "unitPrice": "5,95 €/u",
      "badge": { "label": "PRO", "tone": "dark" },
      "stock": "in_stock"
    },
    {
      "id": "SOL-ANT-FOU",
      "sku": "SOL-ANT-FOU",
      "brand": "Solabiol",
      "name": "Anti-Fourmis Poudre Barrière 1kg",
      "image": "https://images.unsplash.com/photo-1581092580497-e0d23cbdf1dc?w=600&q=80&auto=format&fit=crop",
      "tags": ["1 KG", "EXTÉRIEUR"],
      "price": 8.90,
      "compareAtPrice": null,
      "unitPrice": "8,90 €/KG",
      "ribbon": "RUPTURE",
      "stock": "out_of_stock"
    },
    {
      "id": "STX-KIT-PRO",
      "sku": "STX-KIT-PRO",
      "brand": "Starwax",
      "name": "Kit Traitement Charpente Bois 5L",
      "image": "https://images.unsplash.com/photo-1597844760930-e7115bc1a4ec?w=600&q=80&auto=format&fit=crop",
      "tags": ["5 L", "BOIS", "BÉTON"],
      "price": 39.90,
      "compareAtPrice": null,
      "unitPrice": "7,98 €/L",
      "badge": { "label": "PRO", "tone": "dark" },
      "badge2": { "label": "NOUVEAU", "tone": "stock" },
      "stock": "in_stock"
    }
  ]
}
