{
  "category": {
    "slug": "toile-de-verre-calicot-fissnet",
    "parentLabel": "Préparation des surfaces",
    "parentHref": "/preparation-materiaux",
    "name": "Toile de Verre, Calicot & Fissnet",
    "tagline": "Renfort & Anti-Fissures",
    "description": "Toiles de verre à peindre, calicot et bandes Fissnet pour le pontage des fissures et la préparation durable des murs et plafonds.",
    "stats": { "products": 58, "brands": 9, "delivery": "J+1" }
  },
  "brands": [
    { "name": "Novatex", "count": 16 },
    { "name": "Fissnet", "count": 12 },
    { "name": "Vitrex", "count": 9 },
    { "name": "Toupret", "count": 8 },
    { "name": "Trio", "count": 6 },
    { "name": "Lutèce", "count": 4 },
    { "name": "Calicot Pro", "count": 3 }
  ],
  "surfaceTypes": [
    { "name": "Plâtre", "count": 27 },
    { "name": "Béton", "count": 19 },
    { "name": "Plaque de Plâtre", "count": 22 },
    { "name": "Brique", "count": 8 },
    { "name": "Carreau de plâtre", "count": 6 }
  ],
  "priceRange": { "min": 0, "max": 200, "currentMin": 0, "currentMax": 120 },
  "activeFilters": ["Plâtre"],
  "totalCount": 58,
  "page": 1,
  "totalPages": 7,
  "sortOptions": ["Pertinence", "Prix croissant", "Prix décroissant", "Nouveautés", "Meilleures ventes"],
  "products": [
    {
      "id": "NVT-TV160-25",
      "sku": "NVT-TV160-25",
      "brand": "Novatex",
      "name": "Toile de Verre à Peindre 160g/m² 25m",
      "image": "https://images.unsplash.com/photo-1620626011761-996317b8d101?w=600&q=80&auto=format&fit=crop",
      "tags": ["25 M", "PLÂTRE", "INTÉRIEUR"],
      "price": 34.90,
      "compareAtPrice": 41.00,
      "unitPrice": "1,40 €/m",
      "badge": { "label": "PRO", "tone": "dark" },
      "discount": "-15%",
      "stock": "in_stock"
    },
    {
      "id": "FSN-BF-50",
      "sku": "FSN-BF-50",
      "brand": "Fissnet",
      "name": "Bande Fissnet Anti-Fissures 10cm x 50m",
      "image": "https://images.unsplash.com/photo-1591588582259-30ce8a8a1cf3?w=600&q=80&auto=format&fit=crop",
      "tags": ["50 M", "BÉTON", "PLÂTRE"],
      "price": 22.50,
      "compareAtPrice": null,
      "unitPrice": "0,45 €/m",
      "badge": { "label": "NOUVEAU", "tone": "stock" },
      "ribbon": "STOCK",
      "stock": "in_stock"
    },
    {
      "id": "VTX-TV110-50",
      "sku": "VTX-TV110-50",
      "brand": "Vitrex",
      "name": "Toile de Verre Légère 110g/m² 50m",
      "image": "https://images.unsplash.com/photo-1604782206219-3b9576575203?w=600&q=80&auto=format&fit=crop",
      "tags": ["50 M", "PLAQUE DE PLÂTRE"],
      "price": 39.90,
      "compareAtPrice": 45.00,
      "unitPrice": "0,80 €/m",
      "badge": { "label": "PRO", "tone": "dark" },
      "stock": "in_stock"
    },
    {
      "id": "CLP-CAL-30",
      "sku": "CLP-CAL-30",
      "brand": "Calicot Pro",
      "name": "Calicot Toile de Jute 30m",
      "image": "https://images.unsplash.com/photo-1572981779307-38b8cabb2407?w=600&q=80&auto=format&fit=crop",
      "tags": ["30 M", "PLÂTRE", "BRIQUE"],
      "price": 18.20,
      "compareAtPrice": null,
      "unitPrice": "0,61 €/m",
      "badge": { "label": "NOUVEAU", "tone": "stock" },
      "cornerBadge": "A+",
      "stock": "low_stock"
    },
    {
      "id": "TRP-FN-100",
      "sku": "TRP-FN-100",
      "brand": "Toupret",
      "name": "Bande à Joint Fissnet Renforcée 10cm x 100m",
      "image": "https://images.unsplash.com/photo-1581092580497-e0d23cbdf1dc?w=600&q=80&auto=format&fit=crop",
      "tags": ["100 M", "PLAQUE DE PLÂTRE", "BÉTON"],
      "price": 41.00,
      "compareAtPrice": 47.50,
      "unitPrice": "0,41 €/m",
      "badge": { "label": "PRO", "tone": "dark" },
      "discount": "-14%",
      "stock": "in_stock"
    },
    {
      "id": "TRI-TV200-25",
      "sku": "TRI-TV200-25",
      "brand": "Trio",
      "name": "Toile de Verre Renforcée 200g/m² 25m",
      "image": "https://images.unsplash.com/photo-1607400201889-565b1ee75f8e?w=600&q=80&auto=format&fit=crop",
      "tags": ["25 M", "BÉTON", "EXTÉRIEUR"],
      "price": 44.50,
      "compareAtPrice": null,
      "unitPrice": "1,78 €/m",
      "ribbon": "STOCK",
      "stock": "in_stock"
    },
    {
      "id": "LUT-CAL-50",
      "sku": "LUT-CAL-50",
      "brand": "Lutèce",
      "name": "Calicot Coton Traditionnel 50m",
      "image": "https://images.unsplash.com/photo-1632478081312-3d6cdbb12cc7?w=600&q=80&auto=format&fit=crop",
      "tags": ["50 M", "PLÂTRE", "CARREAU DE PLÂTRE"],
      "price": 27.90,
      "compareAtPrice": null,
      "unitPrice": "0,56 €/m",
      "badge": { "label": "PRO", "tone": "dark" },
      "stock": "in_stock"
    },
    {
      "id": "FSN-BF-10",
      "sku": "FSN-BF-10",
      "brand": "Fissnet",
      "name": "Bande Fissnet Compacte 10cm x 10m",
      "image": "https://images.unsplash.com/photo-1620641622099-a14eb9d35f9d?w=600&q=80&auto=format&fit=crop",
      "tags": ["10 M", "BÉTON"],
      "price": 7.40,
      "compareAtPrice": null,
      "unitPrice": "0,74 €/m",
      "ribbon": "RUPTURE",
      "stock": "out_of_stock"
    },
    {
      "id": "NVT-TV220-25",
      "sku": "NVT-TV220-25",
      "brand": "Novatex",
      "name": "Toile de Verre Haute Résistance 220g/m² 25m",
      "image": "https://images.unsplash.com/photo-1597844760930-e7115bc1a4ec?w=600&q=80&auto=format&fit=crop",
      "tags": ["25 M", "BÉTON", "EXTÉRIEUR"],
      "price": 49.90,
      "compareAtPrice": null,
      "unitPrice": "2,00 €/m",
      "badge": { "label": "PRO", "tone": "dark" },
      "badge2": { "label": "NOUVEAU", "tone": "stock" },
      "stock": "in_stock"
    }
  ]
}
