{
  "category": {
    "slug": "abrasif-papier-de-verre",
    "parentLabel": "Préparation des surfaces",
    "parentHref": "/preparation-materiaux",
    "name": "Abrasif & Papier de Verre",
    "tagline": "Ponçage Précision Pro",
    "description": "Papiers abrasifs, disques de ponçage et toiles émeri pour la préparation, le dégrossissage et la finition de tous types de supports.",
    "stats": { "products": 96, "brands": 11, "delivery": "J+1" }
  },
  "brands": [
    { "name": "3M", "count": 24 },
    { "name": "Norton", "count": 19 },
    { "name": "Mirka", "count": 16 },
    { "name": "Klingspor", "count": 12 },
    { "name": "Sait", "count": 9 },
    { "name": "Festool", "count": 8 },
    { "name": "Starcke", "count": 8 }
  ],
  "surfaceTypes": [
    { "name": "Bois", "count": 38 },
    { "name": "Métal", "count": 29 },
    { "name": "Peinture", "count": 22 },
    { "name": "Enduit", "count": 17 },
    { "name": "Plâtre", "count": 11 },
    { "name": "Vernis", "count": 9 }
  ],
  "priceRange": { "min": 0, "max": 150, "currentMin": 0, "currentMax": 80 },
  "activeFilters": ["Bois"],
  "totalCount": 96,
  "page": 1,
  "totalPages": 11,
  "sortOptions": ["Pertinence", "Prix croissant", "Prix décroissant", "Nouveautés", "Meilleures ventes"],
  "products": [
    {
      "id": "3M-FE-P120-50",
      "sku": "3M-FE-P120-50",
      "brand": "3M",
      "name": "Feuille Abrasive P120 Lot de 50",
      "image": "https://images.unsplash.com/photo-1581244249505-3b8e57b2b3f3?w=600&q=80&auto=format&fit=crop",
      "tags": ["LOT 50", "BOIS", "P120"],
      "price": 19.90,
      "compareAtPrice": 24.00,
      "unitPrice": "0,40 €/u",
      "badge": { "label": "PRO", "tone": "dark" },
      "discount": "-17%",
      "stock": "in_stock"
    },
    {
      "id": "NOR-DD125-P80",
      "sku": "NOR-DD125-P80",
      "brand": "Norton",
      "name": "Disque Auto-Agrippant 125mm P80 Lot de 25",
      "image": "https://images.unsplash.com/photo-1504148455328-c376907d081c?w=600&q=80&auto=format&fit=crop",
      "tags": ["LOT 25", "MÉTAL", "P80"],
      "price": 14.50,
      "compareAtPrice": null,
      "unitPrice": "0,58 €/u",
      "badge": { "label": "NOUVEAU", "tone": "stock" },
      "ribbon": "STOCK",
      "stock": "in_stock"
    },
    {
      "id": "MIR-RP-P240-10",
      "sku": "MIR-RP-P240-10",
      "brand": "Mirka",
      "name": "Rouleau Papier de Verre P240 5m x 115mm",
      "image": "https://images.unsplash.com/photo-1572981779307-38b8cabb2407?w=600&q=80&auto=format&fit=crop",
      "tags": ["5 M", "BOIS", "VERNIS"],
      "price": 11.20,
      "compareAtPrice": 13.50,
      "unitPrice": "2,24 €/m",
      "badge": { "label": "PRO", "tone": "dark" },
      "stock": "in_stock"
    },
    {
      "id": "KLI-TE-P150-10",
      "sku": "KLI-TE-P150-10",
      "brand": "Klingspor",
      "name": "Toile Émeri Souple P150 Lot de 10",
      "image": "https://images.unsplash.com/photo-1591588582259-30ce8a8a1cf3?w=600&q=80&auto=format&fit=crop",
      "tags": ["LOT 10", "MÉTAL", "P150"],
      "price": 9.80,
      "compareAtPrice": null,
      "unitPrice": "0,98 €/u",
      "badge": { "label": "NOUVEAU", "tone": "stock" },
      "cornerBadge": "A+",
      "stock": "low_stock"
    },
    {
      "id": "SAT-DV-225-P60",
      "sku": "SAT-DV-225-P60",
      "brand": "Sait",
      "name": "Disque Velcro 225mm P60 Lot de 20",
      "image": "https://images.unsplash.com/photo-1620626011761-996317b8d101?w=600&q=80&auto=format&fit=crop",
      "tags": ["LOT 20", "ENDUIT", "P60"],
      "price": 22.90,
      "compareAtPrice": 26.50,
      "unitPrice": "1,15 €/u",
      "badge": { "label": "PRO", "tone": "dark" },
      "discount": "-14%",
      "stock": "in_stock"
    },
    {
      "id": "FES-NET-P180-10",
      "sku": "FES-NET-P180-10",
      "brand": "Festool",
      "name": "Abrasif Treillis Net P180 Lot de 10",
      "image": "https://images.unsplash.com/photo-1620641622099-a14eb9d35f9d?w=600&q=80&auto=format&fit=crop",
      "tags": ["LOT 10", "PEINTURE", "P180"],
      "price": 17.40,
      "compareAtPrice": null,
      "unitPrice": "1,74 €/u",
      "ribbon": "STOCK",
      "stock": "in_stock"
    },
    {
      "id": "STA-FE-P40-50",
      "sku": "STA-FE-P40-50",
      "brand": "Starcke",
      "name": "Feuille Abrasive Gros Grain P40 Lot de 50",
      "image": "https://images.unsplash.com/photo-1607400201889-565b1ee75f8e?w=600&q=80&auto=format&fit=crop",
      "tags": ["LOT 50", "BOIS", "P40"],
      "price": 21.50,
      "compareAtPrice": null,
      "unitPrice": "0,43 €/u",
      "badge": { "label": "PRO", "tone": "dark" },
      "stock": "in_stock"
    },
    {
      "id": "3M-DD150-P320",
      "sku": "3M-DD150-P320",
      "brand": "3M",
      "name": "Disque Finition Extra-Fin 150mm P320 Lot de 15",
      "image": "https://images.unsplash.com/photo-1632478081312-3d6cdbb12cc7?w=600&q=80&auto=format&fit=crop",
      "tags": ["LOT 15", "VERNIS", "P320"],
      "price": 8.60,
      "compareAtPrice": null,
      "unitPrice": "0,57 €/u",
      "ribbon": "RUPTURE",
      "stock": "out_of_stock"
    },
    {
      "id": "NOR-BC-P100",
      "sku": "NOR-BC-P100",
      "brand": "Norton",
      "name": "Bloc Cale à Poncer Souple P100",
      "image": "https://images.unsplash.com/photo-1604782206219-3b9576575203?w=600&q=80&auto=format&fit=crop",
      "tags": ["UNITÉ", "PLÂTRE", "P100"],
      "price": 5.90,
      "compareAtPrice": null,
      "unitPrice": "5,90 €/u",
      "badge": { "label": "PRO", "tone": "dark" },
      "badge2": { "label": "NOUVEAU", "tone": "stock" },
      "stock": "in_stock"
    }
  ]
}
