{
  "category": {
    "slug": "entretien-decapant-et-diluant",
    "parentLabel": "Préparation des surfaces",
    "parentHref": "/preparation-materiaux",
    "name": "Entretien, Décapant & Diluant",
    "tagline": "Nettoyage & Préparation Pro",
    "description": "Décapants, diluants, dégraissants et produits d'entretien pour nettoyer, décaper et préparer vos supports avant peinture ou enduit.",
    "stats": { "products": 64, "brands": 10, "delivery": "J+1" }
  },
  "brands": [
    { "name": "V33", "count": 17 },
    { "name": "Tollens", "count": 14 },
    { "name": "Starwax", "count": 11 },
    { "name": "Syntilor", "count": 9 },
    { "name": "Julien", "count": 7 },
    { "name": "Rubson", "count": 4 },
    { "name": "Decapfix", "count": 2 }
  ],
  "surfaceTypes": [
    { "name": "Bois", "count": 22 },
    { "name": "Métal", "count": 18 },
    { "name": "Peinture", "count": 26 },
    { "name": "Béton", "count": 12 },
    { "name": "Carrelage", "count": 8 },
    { "name": "Vernis", "count": 10 }
  ],
  "priceRange": { "min": 0, "max": 180, "currentMin": 0, "currentMax": 100 },
  "activeFilters": [],
  "totalCount": 64,
  "page": 1,
  "totalPages": 8,
  "sortOptions": ["Pertinence", "Prix croissant", "Prix décroissant", "Nouveautés", "Meilleures ventes"],
  "products": [
    {
      "id": "V33-DEC-1L",
      "sku": "V33-DEC-1L",
      "brand": "V33",
      "name": "Décapant Peinture Universel 1L",
      "image": "https://images.unsplash.com/photo-1632478081312-3d6cdbb12cc7?w=600&q=80&auto=format&fit=crop",
      "tags": ["1 L", "BOIS", "PEINTURE"],
      "price": 16.90,
      "compareAtPrice": 19.90,
      "unitPrice": "16,90 €/L",
      "badge": { "label": "PRO", "tone": "dark" },
      "discount": "-15%",
      "stock": "in_stock"
    },
    {
      "id": "TOL-DIL-5L",
      "sku": "TOL-DIL-5L",
      "brand": "Tollens",
      "name": "Diluant Universel Acrylique 5L",
      "image": "https://images.unsplash.com/photo-1604782206219-3b9576575203?w=600&q=80&auto=format&fit=crop",
      "tags": ["5 L", "PEINTURE"],
      "price": 24.50,
      "compareAtPrice": null,
      "unitPrice": "4,90 €/L",
      "badge": { "label": "NOUVEAU", "tone": "stock" },
      "ribbon": "STOCK",
      "stock": "in_stock"
    },
    {
      "id": "STX-DEG-1L",
      "sku": "STX-DEG-1L",
      "brand": "Starwax",
      "name": "Dégraissant Multi-Surfaces 1L",
      "image": "https://images.unsplash.com/photo-1591588582259-30ce8a8a1cf3?w=600&q=80&auto=format&fit=crop",
      "tags": ["1 L", "MÉTAL", "CARRELAGE"],
      "price": 9.80,
      "compareAtPrice": 11.50,
      "unitPrice": "9,80 €/L",
      "badge": { "label": "PRO", "tone": "dark" },
      "stock": "in_stock"
    },
    {
      "id": "SYN-DEV-0.5L",
      "sku": "SYN-DEV-0.5L",
      "brand": "Syntilor",
      "name": "Décapant Vernis Gel 0,5L",
      "image": "https://images.unsplash.com/photo-1572981779307-38b8cabb2407?w=600&q=80&auto=format&fit=crop",
      "tags": ["0.5 L", "BOIS", "VERNIS"],
      "price": 13.20,
      "compareAtPrice": null,
      "unitPrice": "26,40 €/L",
      "badge": { "label": "NOUVEAU", "tone": "stock" },
      "cornerBadge": "A+",
      "stock": "low_stock"
    },
    {
      "id": "JUL-WW-5L",
      "sku": "JUL-WW-5L",
      "brand": "Julien",
      "name": "White Spirit 5L",
      "image": "https://images.unsplash.com/photo-1620626011761-996317b8d101?w=600&q=80&auto=format&fit=crop",
      "tags": ["5 L", "PEINTURE", "MÉTAL"],
      "price": 18.40,
      "compareAtPrice": 21.00,
      "unitPrice": "3,68 €/L",
      "badge": { "label": "PRO", "tone": "dark" },
      "discount": "-12%",
      "stock": "in_stock"
    },
    {
      "id": "RUB-ANT-1L",
      "sku": "RUB-ANT-1L",
      "brand": "Rubson",
      "name": "Anti-Humidité Nettoyant Façade 1L",
      "image": "https://images.unsplash.com/photo-1620641622099-a14eb9d35f9d?w=600&q=80&auto=format&fit=crop",
      "tags": ["1 L", "BÉTON", "EXTÉRIEUR"],
      "price": 12.90,
      "compareAtPrice": null,
      "unitPrice": "12,90 €/L",
      "ribbon": "STOCK",
      "stock": "in_stock"
    },
    {
      "id": "DCF-DEC-2.5L",
      "sku": "DCF-DEC-2.5L",
      "brand": "Decapfix",
      "name": "Décapant Façade Professionnel 2,5L",
      "image": "https://images.unsplash.com/photo-1607400201889-565b1ee75f8e?w=600&q=80&auto=format&fit=crop",
      "tags": ["2.5 L", "BÉTON", "EXTÉRIEUR"],
      "price": 29.90,
      "compareAtPrice": null,
      "unitPrice": "11,96 €/L",
      "badge": { "label": "PRO", "tone": "dark" },
      "stock": "in_stock"
    },
    {
      "id": "V33-NET-1L",
      "sku": "V33-NET-1L",
      "brand": "V33",
      "name": "Nettoyant Avant Peinture 1L",
      "image": "https://images.unsplash.com/photo-1581092580497-e0d23cbdf1dc?w=600&q=80&auto=format&fit=crop",
      "tags": ["1 L", "PEINTURE", "CARRELAGE"],
      "price": 8.50,
      "compareAtPrice": null,
      "unitPrice": "8,50 €/L",
      "ribbon": "RUPTURE",
      "stock": "out_of_stock"
    },
    {
      "id": "TOL-DSV-1L",
      "sku": "TOL-DSV-1L",
      "brand": "Tollens",
      "name": "Diluant Spécial Vernis & Laque 1L",
      "image": "https://images.unsplash.com/photo-1597844760930-e7115bc1a4ec?w=600&q=80&auto=format&fit=crop",
      "tags": ["1 L", "VERNIS", "BOIS"],
      "price": 14.90,
      "compareAtPrice": null,
      "unitPrice": "14,90 €/L",
      "badge": { "label": "PRO", "tone": "dark" },
      "badge2": { "label": "NOUVEAU", "tone": "stock" },
      "stock": "in_stock"
    }
  ]
}
